; Engine configuration file.
; It's best edited using the editor UI and not directly,
; since the parameters that go here are not all obvious.
;
; Format:
;   [section] ; section goes between []
;   param=value ; assign values to parameters

config_version=4

_global_script_classes=[ {
"base": "CanvasLayer",
"class": "UI",
"language": "GDScript",
"path": "res://src/UI/UserInterface.gd"
} ]
_global_script_class_icons={
"UI": ""
}

[application]

config/name="havuroots"
run/main_scene="res://src/Main/nodemain.tscn"
config/icon="res://icon.png"

[display]

window/size/width=428
window/size/height=926
window/handheld/orientation="portrait"

[global]

port=false
portrait=true

[gui]

common/drop_mouse_on_gui_input_disabled=true

[input_devices]

pointing/emulate_touch_from_mouse=true

[mono]

project/assembly_name="havuroots"

[physics]

common/enable_pause_aware_picking=true
