[gd_scene load_steps=2 format=2]

[ext_resource path="res://src/UI/UserInterface.tscn" type="PackedScene" id=1]

[node name="Node2D" type="Node2D"]

[node name="UI" type="Node2D" parent="."]

[node name="UI" parent="UI" instance=ExtResource( 1 )]
